sump2/sump2_demo.vcd
$date      Wed May  4 10:12:46 2005 $end
$version   ModelSim Version 6.0c    $end
$timescale 1ps                      $end
$scope     module   module_name     $end
$var wire 1 AA hsync $end
$var wire 1 BA vsync $end
$var wire 1 CA pixel_r $end
$var wire 1 DA pixel_g $end
$var wire 1 EA pixel_b $end
$upscope $end
$enddefinitions $end
#0
$dumpvars
$end
#0
0AA
0BA
0CA
0DA
0EA
#360000
1EA
#370000
0EA
#2750000
1EA
#2760000
0EA
#7990000
1AA
#8100000
0AA
#8920000
1CA
#8930000
0CA
#11540000
1EA
#11550000
0EA
#12770000
1CA
#12780000
0CA
#16090000
1AA
#16190000
1BA
#16200000
0AA
#18070000
1EA
#18080000
0EA
#21310000
1DA
#21320000
0DA
#22090000
1DA
#22100000
0DA
#24190000
1AA
#24290000
0BA
#24300000
0AA
#24900000
1CA
#24910000
0CA
#26370000
1DA
#26380000
0DA
#27150000
1EA
#27160000
0EA
#32290000
1AA
#32400000
0AA
#40390000
1AA
#40500000
0AA
#40690000
1EA
#40700000
0EA
#41390000
1DA
#41400000
0DA
#41590000
1CA
#41600000
0CA
#42160000
1EA
#42170000
0EA
#42230000
1DA
#42240000
0DA
#46000000
1EA
#46010000
0EA
#47880000
1CA
#47890000
0CA
#48490000
1AA
#48600000
0AA
#50800000
1EA
#50810000
0EA
#50990000
1EA
#51000000
0EA
#53310000
1EA
#53320000
0EA
#56590000
1AA
#56700000
0AA
#56830000
1EA
#56840000
0EA
#57600000
1EA
#57610000
0EA
#60340000
1CA
#60350000
0CA
#64690000
1AA
#64800000
0AA
#66080000
1EA
#66090000
0EA
#70970000
1CA
#70980000
0CA
#72790000
1AA
#72900000
0AA
#80890000
1AA
#81000000
0AA
#86880000
1CA
#86890000
0CA
#88990000
1AA
#89100000
0AA
#90220000
1EA
#90230000
0EA
#92100000
1EA
#92110000
0EA
#94370000
1EA
#94380000
0EA
#94640000
1DA
#94650000
0DA
#97090000
1AA
#97200000
0AA
